<svg width="17" height="35" viewBox="0 0 17 35" fill="none" xmlns="http://www.w3.org/2000/svg">
<path d="M8.5 0L15.8612 12H1.13878L8.5 0Z" fill="#373737"/>
<line x1="8.5" y1="8" x2="8.5" y2="35" stroke="#373737" stroke-width="3"/>
</svg>
