<svg width="45" height="45" viewBox="0 0 45 45" fill="none" xmlns="http://www.w3.org/2000/svg">
<path d="M43 2L10 2C5.58172 2 2 5.58172 2 10L2 43" stroke="#459F02" stroke-width="3" stroke-linecap="round" stroke-linejoin="round"/>
</svg>
